{
  "name": "Car",
  "fields": [
    {
      "fieldName": "username",
      "fieldType": "String",
      "fieldValidateRules": ["required"]
    },
    {
      "fieldName": "model",
      "fieldType": "String",
      "fieldValidateRules": ["required"]
    },
    {
      "fieldName": "color",
      "fieldType": "String",
      "fieldValidateRules": ["required"]
    },
    {
      "fieldName": "comfort",
      "fieldType": "Integer",
      "fieldValidateRules": ["required"]
    }
  ],
  "relationships": [],
  "entityTableName": "car",
  "dto": "mapstruct",
  "pagination": "no",
  "service": "serviceClass",
  "jpaMetamodelFiltering": false,
  "fluentMethods": true,
  "readOnly": false,
  "embedded": false,
  "applications": ["gateway", "profile"],
  "microserviceName": "profile",
  "clientRootFolder": "profile",
  "databaseType": "sql",
  "changelogDate": "20210413161044"
}
