{
  "name": "UserProfile",
  "fields": [
    {
      "fieldName": "username",
      "fieldType": "String",
      "fieldValidateRules": ["required", "unique"]
    },
    {
      "fieldName": "isDriver",
      "fieldType": "Boolean",
      "fieldValidateRules": ["required"]
    }
  ],
  "relationships": [],
  "entityTableName": "user_profile",
  "dto": "mapstruct",
  "pagination": "no",
  "service": "serviceClass",
  "jpaMetamodelFiltering": false,
  "fluentMethods": true,
  "readOnly": false,
  "embedded": false,
  "applications": ["gateway", "profile"],
  "microserviceName": "profile",
  "clientRootFolder": "profile",
  "databaseType": "mongodb",
  "changelogDate": "20210413160644"
}
